{
  "type": "array",
  "required": true,
  "items": {
    "type": "object",
    "required": true,
    "properties": {
      "_id": {
        "type": "string",
        "required": true
      },
      "categorie": {
        "type": "string",
        "required": true
      },
      "date": {
        "type": "string",
        "required": true
      },
      "quart": {
        "type": "string",
        "required": true
      },
      "pdq": {
        "type": "string",
        "required": true
      },
      "x": {
        "type": "string",
        "required": true
      },
      "y": {
        "type": "string",
        "required": true
      },
      "lat": {
        "type": "string",
        "required": true
      },
      "long": {
        "type": "string",
        "required": true
      }
    }
  }
}
